Introducción a R - Sesión 2
…
---

count: false

.panel1-my_gap-auto[

```r
*gapminder
```
]
 
.panel2-my_gap-auto[

```
# A tibble: 1,704 × 6
   country     continent  year lifeExp      pop gdpPercap
   <fct>       <fct>     <int>   <dbl>    <int>     <dbl>
 1 Afghanistan Asia       1952    28.8  8425333      779.
 2 Afghanistan Asia       1957    30.3  9240934      821.
 3 Afghanistan Asia       1962    32.0 10267083      853.
 4 Afghanistan Asia       1967    34.0 11537966      836.
 5 Afghanistan Asia       1972    36.1 13079460      740.
 6 Afghanistan Asia       1977    38.4 14880372      786.
 7 Afghanistan Asia       1982    39.9 12881816      978.
 8 Afghanistan Asia       1987    40.8 13867957      852.
 9 Afghanistan Asia       1992    41.7 16317921      649.
10 Afghanistan Asia       1997    41.8 22227415      635.
# … with 1,694 more rows
```
…
---
count: false

.panel1-my_gap-auto[

```r
gapminder %>%
* filter(year == 1982)
```
]
 
.panel2-my_gap-auto[

```
# A tibble: 142 × 6
   country     continent  year lifeExp      pop gdpPercap
   <fct>       <fct>     <int>   <dbl>    <int>     <dbl>
 1 Afghanistan Asia       1982    39.9 12881816      978.
 2 Albania     Europe     1982    70.4  2780097     3631.
 3 Algeria     Africa     1982    61.4 20033753     5745.
 4 Angola      Africa     1982    39.9  7016384     2757.
 5 Argentina   Americas   1982    69.9 29341374     8998.
 6 Australia   Oceania    1982    74.7 15184200    19477.
 7 Austria     Europe     1982    73.2  7574613    21597.
 8 Bahrain     Asia       1982    69.1   377967    19211.
 9 Bangladesh  Asia       1982    50.0 93074406      677.
10 Belgium     Europe     1982    73.9  9856303    20980.
# … with 132 more rows
```
…
